G04 #@! TF.GenerationSoftware,KiCad,Pcbnew,7.0.10-7.0.10~ubuntu22.04.1*
G04 #@! TF.CreationDate,2024-02-15T21:11:44-05:00*
G04 #@! TF.ProjectId,bong0_panel,626f6e67-305f-4706-916e-656c2e6b6963,rev?*
G04 #@! TF.SameCoordinates,Original*
G04 #@! TF.FileFunction,Other,Comment*
%FSLAX46Y46*%
G04 Gerber Fmt 4.6, Leading zero omitted, Abs format (unit mm)*
G04 Created by KiCad (PCBNEW 7.0.10-7.0.10~ubuntu22.04.1) date 2024-02-15 21:11:44*
%MOMM*%
%LPD*%
G01*
G04 APERTURE LIST*
%ADD10C,0.120000*%
%ADD11C,0.150000*%
G04 APERTURE END LIST*
D10*
G04 #@! TO.C,H10*
X47000000Y0D02*
X44200000Y0D01*
X47000000Y6000000D02*
X44200000Y6000000D01*
X47000000Y194000000D02*
X44200000Y194000000D01*
X47000000Y200000000D02*
X44200000Y200000000D01*
X47000000Y0D02*
G75*
G03*
X47000000Y6000000I0J3000000D01*
G01*
X47000000Y194000000D02*
G75*
G03*
X47000000Y200000000I0J3000000D01*
G01*
X44200000Y6000000D02*
G75*
G03*
X44200000Y0I0J-3000000D01*
G01*
X44200000Y200000000D02*
G75*
G03*
X44200000Y194000000I0J-3000000D01*
G01*
D11*
G04 #@! TO.C,H8*
X8550000Y150250000D02*
G75*
G03*
X5950000Y150250000I-1300000J0D01*
G01*
X5950000Y150250000D02*
G75*
G03*
X8550000Y150250000I1300000J0D01*
G01*
G04 #@! TO.C,H6*
X44500000Y150000000D02*
G75*
G03*
X30500000Y150000000I-7000000J0D01*
G01*
X30500000Y150000000D02*
G75*
G03*
X44500000Y150000000I7000000J0D01*
G01*
G04 #@! TO.C,H1*
X22000000Y50000000D02*
G75*
G03*
X3000000Y50000000I-9500000J0D01*
G01*
X3000000Y50000000D02*
G75*
G03*
X22000000Y50000000I9500000J0D01*
G01*
D10*
G04 #@! TO.C,H7*
X3000000Y200000000D02*
X5800000Y200000000D01*
X3000000Y194000000D02*
X5800000Y194000000D01*
X3000000Y6000000D02*
X5800000Y6000000D01*
X3000000Y0D02*
X5800000Y0D01*
X3000000Y200000000D02*
G75*
G03*
X3000000Y194000000I0J-3000000D01*
G01*
X3000000Y6000000D02*
G75*
G03*
X3000000Y0I0J-3000000D01*
G01*
X5800000Y194000000D02*
G75*
G03*
X5800000Y200000000I0J3000000D01*
G01*
X5800000Y0D02*
G75*
G03*
X5800000Y6000000I0J3000000D01*
G01*
D11*
G04 #@! TO.C,H9*
X15300000Y115000000D02*
G75*
G03*
X9700000Y115000000I-2800000J0D01*
G01*
X9700000Y115000000D02*
G75*
G03*
X15300000Y115000000I2800000J0D01*
G01*
G04 #@! TO.C,H2*
X22000000Y25000000D02*
G75*
G03*
X3000000Y25000000I-9500000J0D01*
G01*
X3000000Y25000000D02*
G75*
G03*
X22000000Y25000000I9500000J0D01*
G01*
G04 #@! TO.C,H3*
X47000000Y50000000D02*
G75*
G03*
X28000000Y50000000I-9500000J0D01*
G01*
X28000000Y50000000D02*
G75*
G03*
X47000000Y50000000I9500000J0D01*
G01*
G04 #@! TO.C,H4*
X47000000Y25000000D02*
G75*
G03*
X28000000Y25000000I-9500000J0D01*
G01*
X28000000Y25000000D02*
G75*
G03*
X47000000Y25000000I9500000J0D01*
G01*
G04 #@! TO.C,H17*
X45600000Y175900000D02*
G75*
G03*
X39600000Y175900000I-3000000J0D01*
G01*
X39600000Y175900000D02*
G75*
G03*
X45600000Y175900000I3000000J0D01*
G01*
G04 #@! TO.C,H18*
X44150000Y119700000D02*
G75*
G03*
X41550000Y119700000I-1300000J0D01*
G01*
X41550000Y119700000D02*
G75*
G03*
X44150000Y119700000I1300000J0D01*
G01*
G04 #@! TO.C,H12*
X47000000Y75000000D02*
G75*
G03*
X28000000Y75000000I-9500000J0D01*
G01*
X28000000Y75000000D02*
G75*
G03*
X47000000Y75000000I9500000J0D01*
G01*
G04 #@! TO.C,H13*
X40300000Y90000000D02*
G75*
G03*
X34700000Y90000000I-2800000J0D01*
G01*
X34700000Y90000000D02*
G75*
G03*
X40300000Y90000000I2800000J0D01*
G01*
G04 #@! TO.C,H11*
X22000000Y75000000D02*
G75*
G03*
X3000000Y75000000I-9500000J0D01*
G01*
X3000000Y75000000D02*
G75*
G03*
X22000000Y75000000I9500000J0D01*
G01*
G04 #@! TO.C,H16*
X19500000Y135000000D02*
G75*
G03*
X5500000Y135000000I-7000000J0D01*
G01*
X5500000Y135000000D02*
G75*
G03*
X19500000Y135000000I7000000J0D01*
G01*
G04 #@! TO.C,H19*
X10500000Y93950000D02*
G75*
G03*
X4500000Y93950000I-3000000J0D01*
G01*
X4500000Y93950000D02*
G75*
G03*
X10500000Y93950000I3000000J0D01*
G01*
G04 #@! TO.C,H15*
X44500000Y110000000D02*
G75*
G03*
X30500000Y110000000I-7000000J0D01*
G01*
X30500000Y110000000D02*
G75*
G03*
X44500000Y110000000I7000000J0D01*
G01*
G04 #@! TO.C,H14*
X19500000Y175000000D02*
G75*
G03*
X5500000Y175000000I-7000000J0D01*
G01*
X5500000Y175000000D02*
G75*
G03*
X19500000Y175000000I7000000J0D01*
G01*
G04 #@! TD*
M02*
